{
  "object_kind": "push",
  "before": "a95a9f2e88a0d421a5635e6f3bdcaf50fa80fb10",
  "after": "590670a5ede2aef3569d84df5f53f41bbb5e441b",
  "ref": "refs/heads/master",
  "checkout_sha": "590670a5ede2aef3569d84df5f53f41bbb5e441b",
  "message": null,
  "user_id": 2,
  "user_name": "Jenkins",
  "user_email": "jenkins@jenkins.com",
  "project_id": 1,
  "repository": {
    "name": "TracyRepo",
    "url": "git@gitlab.example.com:root/john.git",
    "description": "",
    "homepage": "http://gitlab.example.com/root/john",
    "git_http_url": "http://gitlab.example.com/root/john.git",
    "git_ssh_url": "git@gitlab.example.com:root/john.git",
    "visibility_level": 20
  },
  "commits": [
    {
      "id": "590670a5ede2aef3569d84df5f53f41bbb5e441b",
      "message": "Fixes PROJ-7",
      "timestamp": "2016-04-11T09:34:02+00:00",
      "url": "http://gitlab.example.com/root/john/commit/590670a5ede2aef3569d84df5f53f41bbb5e441b",
      "author": {
        "name": "Jenkins",
        "email": "jenkins@jenkins.com"
      },
      "added": [],
      "modified": [
        "README.md"
      ],
      "removed": []
    }
  ],
  "total_commits_count": 1
}